{
  "project_info": {
    "project_number": "648982293445",
    "project_id": "mobilneapp-tim16",
    "storage_bucket": "mobilneapp-tim16.appspot.com"
  },
  "client": [
    {
      "client_info": {
        "mobilesdk_app_id": "1:648982293445:android:626ac8f71feb5f01eeb9ac",
        "android_client_info": {
          "package_name": "com.example.eventplannerapp"
        }
      },
      "oauth_client": [],
      "api_key": [
        {
          "current_key": "AIzaSyASNk6k_UCw0WEpqsmEE4Hi0SlA_KDJMHM"
        }
      ],
      "services": {
        "appinvite_service": {
          "other_platform_oauth_client": []
        }
      }
    }
  ],
  "configuration_version": "1"
}